{"version":1,
"targets":[
{
"spawnType":"Image"
,"imageUrl":"https://mumftp.mpsinteractive.com/optum/ARTargets/photo.png",
"name":"photo",
"size":{"x":7.28,"y":2.21}
},
   {"spawnType":"Image"
,"imageUrl":"https://mumftp.mpsinteractive.com/optum/ARTargets/firstcry.png",
"name":"firstcry",
"size":{"x":0.0,"y":0.0}
},
{"spawnType":"Image"
,"imageUrl":"https://mumftp.mpsinteractive.com/optum/ARTargets/3.png",
"name":"Target3",
"size":{"x":0.0,"y":0.0}
}]

}